<?xml version="1.0" encoding="UTF-8" standalone="no"?>
<!-- Created with Inkscape (http://www.inkscape.org/) -->
<svg
   xmlns:dc="http://purl.org/dc/elements/1.1/"
   xmlns:cc="http://web.resource.org/cc/"
   xmlns:rdf="http://www.w3.org/1999/02/22-rdf-syntax-ns#"
   xmlns:svg="http://www.w3.org/2000/svg"
   xmlns="http://www.w3.org/2000/svg"
   xmlns:xlink="http://www.w3.org/1999/xlink"
   xmlns:sodipodi="http://sodipodi.sourceforge.net/DTD/sodipodi-0.dtd"
   xmlns:inkscape="http://www.inkscape.org/namespaces/inkscape"
   width="48px"
   height="48px"
   id="svg2318"
   sodipodi:version="0.32"
   inkscape:version="0.45.1"
   sodipodi:docbase="/home/james/source/mangle/trunk/Resources/neko"
   sodipodi:docname="mangle-icon-yellow.svg"
   inkscape:output_extension="org.inkscape.output.svg.inkscape">
  <defs
     id="defs2320">
    <linearGradient
       id="linearGradient3152">
      <stop
         style="stop-color:#ffffff;stop-opacity:1;"
         offset="0"
         id="stop3154" />
      <stop
         id="stop3160"
         offset="0.5"
         style="stop-color:#ffffff;stop-opacity:1;" />
      <stop
         style="stop-color:#ffffff;stop-opacity:1;"
         offset="0.75"
         id="stop3162" />
      <stop
         style="stop-color:#c3c3c3;stop-opacity:1;"
         offset="1"
         id="stop3156" />
    </linearGradient>
    <linearGradient
       inkscape:collect="always"
       xlink:href="#linearGradient3152"
       id="linearGradient3158"
       x1="1.1976526"
       y1="7.1539221"
       x2="45.462276"
       y2="4.1234641"
       gradientUnits="userSpaceOnUse" />
  </defs>
  <sodipodi:namedview
     id="base"
     pagecolor="#ffffff"
     bordercolor="#666666"
     borderopacity="1.0"
     inkscape:pageopacity="0.0"
     inkscape:pageshadow="2"
     inkscape:zoom="9.8994949"
     inkscape:cx="24"
     inkscape:cy="24"
     inkscape:current-layer="layer1"
     showgrid="true"
     inkscape:grid-bbox="true"
     inkscape:document-units="px"
     inkscape:window-width="1163"
     inkscape:window-height="945"
     inkscape:window-x="212"
     inkscape:window-y="191" />
  <metadata
     id="metadata2323">
    <rdf:RDF>
      <cc:Work
         rdf:about="">
        <dc:format>image/svg+xml</dc:format>
        <dc:type
           rdf:resource="http://purl.org/dc/dcmitype/StillImage" />
      </cc:Work>
    </rdf:RDF>
  </metadata>
  <g
     id="layer1"
     inkscape:label="Layer 1"
     inkscape:groupmode="layer">
    <path
       style="fill:url(#linearGradient3158);fill-opacity:1.0;fill-rule:evenodd;stroke:#000000;stroke-width:1.5;stroke-linecap:butt;stroke-linejoin:miter;stroke-miterlimit:4;stroke-dasharray:none;stroke-opacity:1"
       d="M 47.1875 1.75 L 0.9375 5.03125 L 3.6875 45.03125 L 11.15625 41.15625 C 26.912589 33.984166 20.368472 43.960237 30.21875 46.21875 C 40.171588 48.500779 47.84375 44.34375 47.84375 44.34375 L 47.1875 1.75 z M 8.8125 7.59375 C 10.785625 7.5937498 12.40625 9.3065041 12.40625 11.40625 C 12.40625 13.505996 10.785625 15.21875 8.8125 15.21875 C 6.8393758 15.21875 5.25 13.505996 5.25 11.40625 C 5.2499999 9.3065041 6.8393755 7.59375 8.8125 7.59375 z M 9.8125 19.59375 C 11.785625 19.59375 13.40625 21.306504 13.40625 23.40625 C 13.40625 25.505995 11.785625 27.21875 9.8125 27.21875 C 7.8393758 27.21875 6.25 25.505996 6.25 23.40625 C 6.2499999 21.306503 7.8393755 19.59375 9.8125 19.59375 z M 11.1875 31.21875 C 13.160624 31.218749 14.75 32.931504 14.75 35.03125 C 14.75 37.130996 13.160625 38.8125 11.1875 38.8125 C 9.2143751 38.812502 7.59375 37.130996 7.59375 35.03125 C 7.5937502 32.931504 9.2143755 31.21875 11.1875 31.21875 z "
       id="path2346" />
    <path
       style="fill:#ffef3b;fill-opacity:0.49729729;fill-rule:evenodd;stroke:none;stroke-width:1px;stroke-linecap:butt;stroke-linejoin:miter;stroke-opacity:1"
       d="M 15.696954,5.1637034 C 16.696954,16.646944 16.696954,16.747959 16.696954,16.747959 L 45.696954,13.717501 L 45.696954,2.6058236 L 15.696954,5.1637034 z "
       id="path2352" />
    <path
       style="fill:#ffef3b;fill-opacity:0.49729729;fill-rule:evenodd;stroke:none;stroke-width:1px;stroke-linecap:butt;stroke-linejoin:miter;stroke-opacity:1"
       d="M 17.8797,27.455576 C 18.586806,38.264718 18.585786,38.163703 18.585786,38.163703 L 46.494923,36.274871 L 46.090862,24.769795 L 17.8797,27.455576 z "
       id="path2354"
       sodipodi:nodetypes="ccccc" />
    <path
       transform="matrix(0.9946143,-0.1036456,0.1036456,0.9946143,38.549215,12.956691)"
       style="font-size:8px;font-family:AR PL KaitiM GB"
       d="M -19.648438,-6.4177068 L -19.648438,-2.5739568 C -19.648438,-2.4593725 -19.669271,-2.3786434 -19.710938,-2.3317693 C -19.747396,-2.2796851 -19.825521,-2.2536435 -19.945312,-2.2536443 L -19.945312,-2.0348943 L -19.054688,-2.0348943 L -19.054688,-2.2536443 C -19.184897,-2.2536435 -19.273438,-2.277081 -19.320312,-2.3239568 C -19.356772,-2.3708309 -19.377605,-2.4541641 -19.382812,-2.5739568 L -19.382812,-5.6364568 L -18.414062,-2.5270818 L -18.148438,-2.5270818 L -18.148438,-2.5505193 L -17.117188,-6.1364568 L -17.117188,-2.6286443 C -17.11719,-2.4828099 -17.140628,-2.3838517 -17.1875,-2.3317693 C -17.223961,-2.2796851 -17.317711,-2.2536435 -17.46875,-2.2536443 L -17.46875,-2.0348943 L -16.179688,-2.0348943 L -16.179688,-2.2536443 C -16.335941,-2.2536435 -16.432295,-2.2822893 -16.46875,-2.3395818 C -16.505212,-2.3916642 -16.523441,-2.4880183 -16.523438,-2.6286443 L -16.523438,-6.3864568 C -16.523441,-6.4541601 -16.502608,-6.5166601 -16.460938,-6.5739568 C -16.424483,-6.6208266 -16.330733,-6.6442641 -16.179688,-6.6442693 L -16.179688,-6.8630193 L -17.171875,-6.8630193 L -18.171875,-3.4020818 L -19.164062,-6.8630193 L -19.945312,-6.8630193 L -19.945312,-6.6442693 C -19.867188,-6.6442641 -19.796875,-6.6182225 -19.734375,-6.5661443 C -19.682292,-6.5192642 -19.653646,-6.4697851 -19.648438,-6.4177068 M -12.898438,-2.4489568 L -12.898438,-4.2458318 C -12.898441,-4.5583287 -13.023441,-4.8135368 -13.273438,-5.0114568 C -13.513023,-5.2041614 -13.820315,-5.3005155 -14.195312,-5.3005193 L -14.195312,-5.3083318 C -14.544272,-5.3135363 -14.838543,-5.245828 -15.078125,-5.1052068 C -15.302084,-4.9802033 -15.416667,-4.8187451 -15.421875,-4.6208318 C -15.421876,-4.5270787 -15.382813,-4.4437455 -15.304688,-4.3708318 C -15.23698,-4.3187456 -15.156251,-4.2874956 -15.0625,-4.2770818 C -14.979168,-4.277079 -14.89323,-4.3031206 -14.804688,-4.3552068 C -14.721356,-4.4072872 -14.674481,-4.4958288 -14.664062,-4.6208318 C -14.684897,-4.7979118 -14.635418,-4.9203075 -14.515625,-4.9880193 C -14.421877,-5.040099 -14.31771,-5.071349 -14.203125,-5.0817693 C -13.994794,-5.086974 -13.820315,-5.0374949 -13.679688,-4.9333318 C -13.533857,-4.8239534 -13.458336,-4.6650994 -13.453125,-4.4567693 L -13.453125,-3.8161443 C -13.656252,-3.8838502 -13.856773,-3.9177043 -14.054688,-3.9177068 C -14.570314,-3.9229127 -14.989584,-3.8343711 -15.3125,-3.6520818 C -15.661459,-3.4645798 -15.833334,-3.2041634 -15.828125,-2.8708318 C -15.833334,-2.5843723 -15.721355,-2.3552059 -15.492188,-2.1833318 C -15.315105,-2.0531229 -15.088543,-1.9776021 -14.8125,-1.9567693 C -14.406252,-1.9619771 -14.052085,-2.040102 -13.75,-2.1911443 C -13.651044,-2.2432268 -13.552086,-2.3083309 -13.453125,-2.3864568 L -13.453125,-2.3395818 C -13.453128,-2.214581 -13.411461,-2.118227 -13.328125,-2.0505193 C -13.265628,-1.9984354 -13.169274,-1.9671855 -13.039062,-1.9567693 C -12.799482,-1.9723938 -12.570316,-2.0817687 -12.351562,-2.2848943 L -12.484375,-2.4567693 C -12.583337,-2.3786434 -12.674483,-2.3291643 -12.757812,-2.3083318 C -12.851566,-2.3239559 -12.898441,-2.3708309 -12.898438,-2.4489568 M -13.632812,-3.6755193 L -13.453125,-3.6520818 L -13.453125,-2.7223943 C -13.562503,-2.6234348 -13.690107,-2.5296849 -13.835938,-2.4411443 C -14.044273,-2.3421851 -14.273439,-2.2822893 -14.523438,-2.2614568 C -14.794272,-2.2979143 -14.992189,-2.3630184 -15.117188,-2.4567693 C -15.242188,-2.5557265 -15.294272,-2.6937472 -15.273438,-2.8708318 C -15.278647,-3.1052052 -15.140626,-3.292705 -14.859375,-3.4333318 C -14.557293,-3.579163 -14.148439,-3.6598921 -13.632812,-3.6755193 M -11.492188,-4.4177068 L -11.492188,-2.5270818 C -11.492188,-2.3499976 -11.609375,-2.2588518 -11.84375,-2.2536443 L -11.84375,-2.0348943 L -10.617188,-2.0348943 L -10.617188,-2.2536443 C -10.856772,-2.2536435 -10.976564,-2.3447892 -10.976562,-2.5270818 L -10.976562,-4.3708318 C -10.523439,-4.7614535 -10.148439,-4.9567658 -9.8515625,-4.9567693 C -9.4921901,-4.9567658 -9.3125028,-4.7953076 -9.3125,-4.4723943 L -9.3125,-2.6052068 C -9.3125028,-2.3708309 -9.4296902,-2.2536435 -9.6640625,-2.2536443 L -9.6640625,-2.0348943 L -8.3359375,-2.0348943 L -8.3359375,-2.2536443 C -8.6223993,-2.2536435 -8.776045,-2.3708309 -8.796875,-2.6052068 L -8.796875,-4.4723943 C -8.7968783,-5.0244741 -9.1484404,-5.3031196 -9.8515625,-5.3083318 C -10.132814,-5.3083279 -10.507814,-5.0843698 -10.976562,-4.6364568 L -10.976562,-5.3083318 L -11.0625,-5.3083318 L -11.84375,-4.8864568 L -11.84375,-4.6677068 C -11.609375,-4.6677036 -11.492188,-4.5843703 -11.492188,-4.4177068 M -6.2578125,-1.1052068 C -5.6588566,-1.1104155 -5.2291695,-1.1911446 -4.96875,-1.3473943 C -4.7031284,-1.5036443 -4.570316,-1.7145815 -4.5703125,-1.9802068 C -4.570316,-2.3083309 -4.72917,-2.5687474 -5.046875,-2.7614568 C -5.3281278,-2.9177053 -5.6666691,-2.9958303 -6.0625,-2.9958318 C -6.5989598,-2.9333303 -6.8723971,-2.9411428 -6.8828125,-3.0192693 C -6.903647,-3.102601 -6.791668,-3.1963509 -6.546875,-3.3005193 C -6.4947933,-3.2953091 -6.4296892,-3.2901008 -6.3515625,-3.2848943 C -6.0182312,-3.2901008 -5.7187524,-3.3812465 -5.453125,-3.5583318 C -5.1822946,-3.7354129 -5.0442739,-3.959371 -5.0390625,-4.2302068 C -5.0390656,-4.5010371 -5.1484404,-4.7328077 -5.3671875,-4.9255193 C -5.3307319,-4.9307242 -5.2968778,-4.9359325 -5.265625,-4.9411443 C -5.1354196,-4.9359325 -5.0286489,-4.8864534 -4.9453125,-4.7927068 C -4.8776074,-4.6937452 -4.7864616,-4.6442661 -4.671875,-4.6442693 C -4.6250035,-4.6442661 -4.5833368,-4.6703078 -4.546875,-4.7223943 C -4.5104203,-4.7744743 -4.4895869,-4.8473909 -4.484375,-4.9411443 C -4.4843786,-5.040099 -4.5468785,-5.1390573 -4.671875,-5.2380193 C -4.7395867,-5.2900988 -4.8255241,-5.3187446 -4.9296875,-5.3239568 C -5.0234406,-5.3239529 -5.1458363,-5.2900988 -5.296875,-5.2223943 C -5.3750027,-5.2015572 -5.4817734,-5.1624948 -5.6171875,-5.1052068 C -5.8411481,-5.2354114 -6.1067728,-5.3031196 -6.4140625,-5.3083318 L -6.4140625,-5.3161443 C -6.4192725,-5.3161404 -6.4218767,-5.3135363 -6.421875,-5.3083318 C -6.44271,-5.3135363 -6.4557308,-5.3135363 -6.4609375,-5.3083318 C -6.7421889,-5.3083279 -6.9947928,-5.2171822 -7.21875,-5.0348943 C -7.458334,-4.8317659 -7.5807297,-4.5869745 -7.5859375,-4.3005193 C -7.585938,-3.9828084 -7.4557298,-3.7328087 -7.1953125,-3.5505193 C -7.0963552,-3.4828089 -6.9869803,-3.4255173 -6.8671875,-3.3786443 C -7.0078136,-3.3421841 -7.1276051,-3.2901008 -7.2265625,-3.2223943 C -7.4192715,-3.1078093 -7.5182297,-2.9880178 -7.5234375,-2.8630193 C -7.5234381,-2.7484347 -7.4348965,-2.6416639 -7.2578125,-2.5427068 C -7.2109384,-2.5218724 -7.1458343,-2.4984349 -7.0625,-2.4723943 C -7.1614593,-2.42031 -7.2500008,-2.3630184 -7.328125,-2.3005193 C -7.5625005,-2.0973937 -7.6796879,-1.8916647 -7.6796875,-1.6833318 C -7.6744796,-1.4749984 -7.5260422,-1.3213528 -7.234375,-1.2223943 C -6.9947928,-1.1546863 -6.6692723,-1.1156238 -6.2578125,-1.1052068 M -5.25,-2.2458318 C -5.1041697,-2.1468728 -5.0286489,-2.0348937 -5.0234375,-1.9098943 C -5.0234406,-1.7796856 -5.1119821,-1.6624983 -5.2890625,-1.5583318 C -5.4505235,-1.4645818 -5.6692733,-1.4151027 -5.9453125,-1.4098943 C -6.3515642,-1.4307277 -6.6406265,-1.4749984 -6.8125,-1.5427068 C -7.0052094,-1.610415 -7.0963552,-1.7302065 -7.0859375,-1.9020818 C -7.1067718,-2.0635395 -7.0312511,-2.2119769 -6.859375,-2.3473943 C -6.8229179,-2.3786434 -6.7786471,-2.404685 -6.7265625,-2.4255193 C -6.5494807,-2.4098933 -6.3281268,-2.4020809 -6.0625,-2.4020818 C -5.6979191,-2.4020809 -5.427086,-2.3499976 -5.25,-2.2458318 M -6.9921875,-4.5895818 C -6.9921886,-4.7197869 -6.934897,-4.8343701 -6.8203125,-4.9333318 C -6.7213555,-5.0114532 -6.6276056,-5.0531199 -6.5390625,-5.0583318 C -6.3359393,-5.0583282 -6.1536478,-4.9802033 -5.9921875,-4.8239568 C -5.7526065,-4.5895787 -5.632815,-4.3109331 -5.6328125,-3.9880193 C -5.632815,-3.8578086 -5.7083357,-3.7406212 -5.859375,-3.6364568 C -5.9739605,-3.5687464 -6.1015645,-3.5270797 -6.2421875,-3.5114568 C -6.4348975,-3.5270797 -6.6093765,-3.6182255 -6.765625,-3.7848943 C -6.9114595,-3.9776001 -6.9869803,-4.245829 -6.9921875,-4.5895818 M -1.8828125,-6.9411443 L -2.1015625,-6.9411443 C -2.1640644,-6.7640557 -2.2812518,-6.6338475 -2.453125,-6.5505193 C -2.6614598,-6.4567643 -2.950522,-6.4098893 -3.3203125,-6.4098943 L -3.3203125,-6.1911443 C -2.9453136,-6.1911396 -2.7083347,-6.1703063 -2.609375,-6.1286443 C -2.5260432,-6.0973897 -2.4817724,-6.040098 -2.4765625,-5.9567693 L -2.4765625,-2.6130193 C -2.4765641,-2.5036433 -2.5338557,-2.4151017 -2.6484375,-2.3473943 C -2.7630222,-2.2848935 -3.062501,-2.2536435 -3.546875,-2.2536443 L -3.546875,-2.0348943 L -0.6328125,-2.0348943 L -0.6328125,-2.2536443 C -1.1692738,-2.2536435 -1.5156276,-2.2874976 -1.671875,-2.3552068 C -1.8125023,-2.4177058 -1.8828147,-2.5036433 -1.8828125,-2.6130193 L -1.8828125,-6.9411443 M 1.9375,-1.9645818 C 2.5781223,-1.9645813 3.0989551,-2.3083309 3.5,-2.9958318 L 3.3203125,-3.0583318 C 3.1328093,-2.8031221 2.9427053,-2.6130181 2.75,-2.4880193 C 2.541664,-2.3630184 2.3229142,-2.3031226 2.09375,-2.3083318 C 1.7291648,-2.3083309 1.4401026,-2.4255183 1.2265625,-2.6598943 C 1.0182281,-2.8942679 0.91406149,-3.2041634 0.9140625,-3.5895818 C 0.91406149,-3.6416629 0.91406149,-3.6885379 0.9140625,-3.7302068 L 3.3515625,-3.7302068 L 3.3515625,-3.9489568 L 3.3515625,-3.9489568 C 3.3151008,-4.3239539 3.2135384,-4.610412 3.046875,-4.8083318 C 2.8072888,-5.1416614 2.4427058,-5.3083279 1.953125,-5.3083318 C 1.4166652,-5.3083279 1.0130197,-5.1442656 0.7421875,-4.8161443 C 0.46093695,-4.4723913 0.32031209,-4.0635375 0.3203125,-3.5895818 C 0.32031209,-3.1312468 0.45833278,-2.7562472 0.734375,-2.4645818 C 1.0364572,-2.1312478 1.4374985,-1.9645813 1.9375,-1.9645818 M 2.75,-3.9489568 L 0.9296875,-3.9489568 C 0.96614477,-4.230204 1.0468739,-4.4645788 1.171875,-4.6520818 C 1.3489569,-4.9385367 1.6093733,-5.0843698 1.953125,-5.0895818 C 2.223956,-5.0895782 2.4244766,-4.9906199 2.5546875,-4.7927068 C 2.6640597,-4.6156203 2.7291638,-4.3343706 2.75,-3.9489568"
       id="flowRoot5110" />
  </g>
</svg>
